AWSTATS DATA FILE 7.4 (build 20140726)
# If you remove this file, all statistics for date 201803 will be lost/reset.
# Last config file used to build this data file was /home2/abdulkareem8/tmp/awstats/awstats.astonukonline.com.conf.

# Position (offset in bytes) in this file for beginning of each section for
# direct I/O access. If you made changes somewhere in this file, you should
# also remove completely the MAP section (AWStats will rewrite it at next
# update).
BEGIN_MAP 28
POS_GENERAL 2019                
POS_TIME 2698                
POS_VISITOR 8800                
POS_DAY 12132               
POS_DOMAIN 3489                
POS_LOGIN 3912                
POS_ROBOT 4067                
POS_WORMS 4480                
POS_EMAILSENDER 4611                
POS_EMAILRECEIVER 4754                
POS_SESSION 12881               
POS_SIDER 13082               
POS_FILETYPES 4889                
POS_DOWNLOADS 5133                
POS_OS 5181                
POS_BROWSER 5441                
POS_SCREENSIZE 6159                
POS_UNKNOWNREFERER 6233                
POS_UNKNOWNREFERERBROWSER 6735                
POS_ORIGIN 7122                
POS_SEREFERRALS 7261                
POS_PAGEREFS 7418                
POS_SEARCHWORDS 7619                
POS_KEYWORDS 7771                
POS_MISC 2361                
POS_ERRORS 7830                
POS_CLUSTER 3768                
POS_SIDER_404 7983                
END_MAP

# LastLine    = Date of last record processed - Last record line number in last log - Last record offset in last log - Last record signature value
# FirstTime   = Date of first visit for history file
# LastTime    = Date of last visit for history file
# LastUpdate  = Date of last update - Nb of parsed records - Nb of parsed old records - Nb of parsed new records - Nb of parsed corrupted - Nb of parsed dropped
# TotalVisits = Number of visits
# TotalUnique = Number of unique visitors
# MonthHostsKnown   = Number of hosts known
# MonthHostsUnKnown = Number of hosts unknown
BEGIN_GENERAL 8
LastLine 20180329031441 64 11663 9373472057499
FirstTime 20180301015243
LastTime 20180329031441
LastUpdate 20180329070527 64 0 64 0 0
TotalVisits 169                 
TotalUnique 73                  
MonthHostsKnown 0                   
MonthHostsUnknown 82                  
END_GENERAL

# Misc ID - Pages - Hits - Bandwidth
BEGIN_MISC 10
PDFSupport 0 0 0
JavaEnabled 0 0 0
TotalMisc 0 0 0
WindowsMediaPlayerSupport 0 0 0
AddToFavourites 0 37 0
QuickTimeSupport 0 0 0
FlashSupport 0 0 0
RealPlayerSupport 0 0 0
DirectorSupport 0 0 0
JavascriptDisabled 0 0 0
END_MISC

# Hour - Pages - Hits - Bandwidth - Not viewed Pages - Not viewed Hits - Not viewed Bandwidth
BEGIN_TIME 24
0 2 2 37870 3 22 401688
1 10 74 6988044 4 13 369637
2 1 1 27845 11 14 62960
3 25 51 2342024 9 32 500365
4 6 6 149650 7 12 89736
5 12 12 337440 6 16 31342
6 2 2 55798 5 17 390830
7 18 101 7828389 4 10 86154
8 23 122 9405864 9 44 1236002
9 20 88 4460706 8 40 1722809
10 14 81 7254461 5 21 427481
11 3 3 86619 7 37 741304
12 6 40 3738638 5 9 55003
13 25 88 5524411 11 32 492353
14 6 6 170154 5 38 772605
15 36 155 11981959 127 302 12542461
16 16 105 8604178 57 125 6263841
17 19 54 3965847 10 38 1768875
18 8 11 302283 19 42 1468510
19 9 9 250605 6 6 87427
20 9 9 165417 7 28 845733
21 18 104 8120252 7 25 2091314
22 5 5 145177 9 14 99511
23 10 13 374492 9 38 809340
END_TIME

# Domain - Pages - Hits - Bandwidth
# The 25 first Pages must be first (order not required for others)
BEGIN_DOMAIN 13
us 151 292 17816147
ao 50 300 19741181
eg 41 272 23342096
ca 19 102 7715248
cn 16 16 445520
za 8 43 2475949
sa 7 40 3625546
ru 4 37 3602140
in 2 23 1594532
fr 2 2 20050
ua 1 1 27845
ro 1 1 27953
ie 1 13 1883916
END_DOMAIN

# Cluster ID - Pages - Hits - Bandwidth
BEGIN_CLUSTER 0
END_CLUSTER

# Login - Pages - Hits - Bandwidth - Last visit
# The 10 first Pages must be first (order not required for others)
BEGIN_LOGIN 0
END_LOGIN

# Robot ID - Hits - Bandwidth - Last visit - Hits on robots.txt
# The 25 first Hits must be first (order not required for others)
BEGIN_ROBOT 7
spider 368 18025497 20180328153216 0
googlebot 157 6112461 20180328145229 14
bot[\s_+:,\.\;\/\\-] 88 5786604 20180328234429 13
no_user_agent 42 1106642 20180328074920 7
bingpreview 12 1249831 20180318094545 0
unknown 4 96 20180318074918 4
googlebot\-image 1 27953 20180308133836 0
END_ROBOT

# Worm ID - Hits - Bandwidth - Last visit
# The 5 first Hits must be first (order not required for others)
BEGIN_WORMS 0
END_WORMS

# EMail - Hits - Bandwidth - Last visit
# The 20 first Hits must be first (order not required for others)
BEGIN_EMAILSENDER 0
END_EMAILSENDER

# EMail - Hits - Bandwidth - Last visit
# The 20 first hits must be first (order not required for others)
BEGIN_EMAILRECEIVER 0
END_EMAILRECEIVER

# Files type - Hits - Bandwidth - Bandwidth without compression - Bandwidth after compression
BEGIN_FILETYPES 9
jpg 232 35063071 0 0
css 235 8660062 0 0
ttf 1 152796 0 0
woff2 17 1117524 0 0
png 26 1488408 0 0
html 198 5480587 0 0
js 346 28700563 0 0
Unknown 80 1022228 0 0
woff 7 632884 0 0
END_FILETYPES

# Downloads - Hits - Bandwidth
BEGIN_DOWNLOADS 0
END_DOWNLOADS

# OS ID - Hits
BEGIN_OS ID - Hits - Pages 15
winnt 138 21
macosx 22 22
macosx6 1 1
win8 23 2
macosx8 1 1
Unknown 54 42
linuxandroid 84 16
win8.1 1 1
winlong 1 1
win2003 25 20
win7 588 130
macosx9 1 1
linux 98 34
ios_iphone 104 10
unix 1 1
END_OS

# Browser ID - Hits - Pages
BEGIN_BROWSER 34
firefox33.0 3 3
firefox40.1 1 1
msie6.0 14 14
chrome11.0.696.71 4 4
safari 137 11
chrome27.0.1453.93 1 1
mozilla 27 27
chrome62.0.3202.94 15 15
chrome49.0.2623.75 13 13
chrome34.0.1847.116 1 1
Unknown 41 29
chrome64.0.3282.186 285 52
firefox57.0 2 2
chrome64.0.3282.137 83 15
chrome45.0.2454.94 1 1
chrome36.0.1985.143 35 2
chrome15.0.861.0 1 1
firefox32.0 1 1
safari11.0 35 3
chrome26.0.1410.65 1 1
firefox58.0 1 1
msie9.0 100 28
chrome52.0.2743.116 92 9
chrome65.0.3325.181 137 16
firefox42.0 1 1
msie7.0 11 6
chrome27.0.1453.116 1 1
chrome58.0.3029.110 1 1
firefox55.0 1 1
firefox21.0 23 2
safari11.0.1 4 4
chrome61.0.3163.100 20 20
firefox47.0 47 14
msie11.0 2 2
END_BROWSER

# Screen size - Hits
BEGIN_SCREENSIZE 0
END_SCREENSIZE

# Unknown referer OS - Last visit date
BEGIN_UNKNOWNREFERER 8
Mozilla/5.0_(compatible;_Dataprovider.com;) 20180304170129
AppEngine-Google;_(_http://code.google.com/appengine;_appid:_s~snapchat-proxy) 20180324223539
Python/3.6_aiohttp/2.3.10 20180320004900
NYU_Internet_Census_(https://scan.lol;_research@scan.lol) 20180328131720
Mozilla/5.0_(compatible;_ips-agent) 20180306201826
panscient.com 20180311034626
Magic_Browser 20180319203557
facebookexternalhit/1.1 20180320160026
END_UNKNOWNREFERER

# Unknown referer Browser - Last visit date
BEGIN_UNKNOWNREFERERBROWSER 6
AppEngine-Google;_(_http://code.google.com/appengine;_appid:_s~snapchat-proxy) 20180324223539
panscient.com 20180311034626
NYU_Internet_Census_(https://scan.lol;_research@scan.lol) 20180328131720
Python/3.6_aiohttp/2.3.10 20180320004900
facebookexternalhit/1.1 20180320160026
Magic_Browser 20180319203557
END_UNKNOWNREFERERBROWSER

# Origin - Pages - Hits 
BEGIN_ORIGIN 6
From0 176 193
From1 2 2
From2 26 98
From3 3 3
From4 96 846
From5 0 0
END_ORIGIN

# Search engine referers ID - Pages - Hits
BEGIN_SEREFERRALS 1
google 26 98
END_SEREFERRALS

# External page referers - Pages - Hits
# The 25 first Pages must be first (order not required for others)
BEGIN_PAGEREFS 2
http://m.facebook.com 2 2
https://l.facebook.com 1 1
END_PAGEREFS

# Search keyphrases - Number of search
# The 10 first number of search must be first (order not required for others)
BEGIN_SEARCHWORDS 0
END_SEARCHWORDS

# Search keywords - Number of search
# The 25 first number of search must be first (order not required for others)
BEGIN_KEYWORDS 0
END_KEYWORDS

# Errors - Hits - Bandwidth
BEGIN_ERRORS 6
302 10 3836
404 164 607340
301 12 3750
406 25 5650
403 45 5896
206 10 421725
END_ERRORS

# URL with 404 errors - Hits - Last URL referrer
BEGIN_SIDER_404 18
/ads.txt 2 -
/store/CHANGELOG.txt 1 -
/blog/CHANGELOG.txt 1 -
/vendor/phpunit/phpunit/src/Util/PHP/eval-stdin.php 2 -
/forum/CHANGELOG.txt 1 -
/CHANGELOG.txt 1 -
/test/CHANGELOG.txt 1 -
/wp-includes/wlwmanifest.xml 1 -
/wp-login.php 2 -
/components/com_b2jcontact/css/b2jcontact.css 4 -
/apple-touch-icon.png 92 -
/site/CHANGELOG.txt 1 -
/mail.php 5 http://astonukonline.com/contact
/drupal/CHANGELOG.txt 1 -
/a 14 -
/sitemap.xml 8 -
/th1s_1s_a_4o4.html 26 http://www.google.com/url
/shop/CHANGELOG.txt 1 -
END_SIDER_404

# Host - Pages - Hits - Bandwidth - Last visit date - [Start date of last visit] - [Last page of last visit]
# [Start date of last visit] and [Last page of last visit] are saved only if session is not finished
# The 25 first Hits must be first (order not required for others)
BEGIN_VISITOR 82
52.165.148.51 29 29 807505 20180328023230
154.188.71.190 27 129 6590590 20180320103207
154.185.131.176 11 97 7925337 20180327212453
156.199.186.52 11 12 313959 20180320135805
100.35.47.77 10 10 123585 20180311034626
54.67.59.131 10 10 279530 20180327204738
113.105.18.22 9 9 250605 20180328212406
192.99.67.12 9 92 7577568 20180318074918
196.159.3.33 8 43 2475949 20180308151258
41.43.93.103 8 70 5106575 20180313132624
158.69.225.34 8 8 137680 20180304170130
51.235.128.217 7 40 3625546 20180323105136
154.184.13.16 7 69 5086029 20180325173221
41.232.27.54 7 40 3628816 20180320160014
184.154.36.164 7 27 981170 20180326153337
184.154.36.167 6 22 1477999 20180327153305
69.58.178.58 6 6 81774 20180306201826
38.100.21.61 6 11 363341 20180303035019
66.249.93.92 5 5 139765 20180325081037
66.249.93.88 5 5 139765 20180327041155
184.154.36.166 5 18 1427567 20180314153829
41.232.56.250 5 40 3660784 20180325174630
107.178.194.59 5 5 154105 20180324223539
113.105.18.19 5 5 139225 20180309063405
184.154.139.22 5 19 2459960 20180328153204
34.229.53.83 1 1 27845 20180321055851
154.188.20.227 1 1 27845 20180319141505
66.249.93.60 1 1 27953 20180313084956
31.13.125.213 0 1 215943 
217.147.169.237 1 1 27845 20180303071902
176.31.64.186 2 2 20050 20180309002954
89.232.71.81 2 35 3574295 20180319095747
35.196.110.59 2 2 55690 20180306073018
31.13.125.199 1 1 27953 20180320160024
192.0.84.159 2 34 3410487 20180323014138
35.196.139.31 2 2 55690 20180311092753
122.176.152.52 2 23 1594532 20180329031440 20180329031423 /fonts/fontawesome-webfont.woff
54.246.232.199 1 1 27845 20180320004900
138.197.202.197 3 3 128466 20180329031441 20180329031441 /fonts/fontawesome-webfont.woff
66.249.93.90 2 2 55906 20180312035330
35.190.186.125 2 2 55690 20180328055350
154.184.35.85 1 1 27845 20180307194524
156.201.105.5 1 1 27845 20180306170712
185.198.167.30 1 1 27845 20180316130647
35.229.81.234 2 2 55690 20180318041232
184.154.36.168 3 12 1306164 20180322154942
35.231.80.150 2 2 55690 20180327232437
154.189.62.160 1 1 27845 20180304132721
31.13.125.24 0 2 138873 
35.229.21.218 2 2 55690 20180301015243
31.13.124.195 0 2 310035 
35.164.52.211 1 1 27953 20180321071229
138.68.180.18 1 1 27845 20180322210132
31.13.124.81 0 1 101424 
41.32.223.86 3 37 3514354 20180312105411
31.13.125.197 0 1 94029 
52.34.24.33 2 2 55690 20180317195229
41.199.58.143 3 35 3419816 20180320080234
159.89.114.102 2 2 0 20180302181505
31.13.125.208 0 1 251371 
172.105.215.38 1 1 27845 20180316101939
35.196.126.212 2 2 55690 20180323141415
5.188.9.80 1 1 0 20180328131720
104.239.149.11 4 4 75924 20180317134035
154.188.159.20 1 1 27845 20180310111715
31.13.125.27 0 1 57752 
107.178.194.61 2 2 61642 20180317123521
156.210.187.47 3 37 3669947 20180305124644
154.184.246.76 1 1 27845 20180314232251
31.13.125.21 0 2 158999 
34.216.141.34 1 1 27845 20180321052906
107.178.194.57 4 4 123284 20180324150111
31.13.125.209 0 1 527537 
180.153.236.11 1 1 27845 20180325081313
192.0.116.178 2 34 3410487 20180323014138
180.153.236.189 1 1 27845 20180320195607
159.65.175.107 1 1 27845 20180314055438
104.131.79.132 1 1 0 20180301080344
52.165.150.117 2 2 55690 20180301052520
176.126.252.11 1 1 27953 20180315070719
35.162.70.167 2 2 55690 20180318195804
52.41.211.72 1 1 27845 20180319203557
END_VISITOR

# Date - Pages - Hits - Bandwidth - Visits
BEGIN_DAY 29
20180301 6 6 121405 5
20180302 4 6 122013 3
20180303 10 18 577263 5
20180304 10 13 281069 3
20180305 6 43 3861471 4
20180306 10 10 193154 4
20180307 7 10 229758 7
20180308 12 50 2814935 5
20180309 5 8 190711 5
20180310 6 8 214430 6
20180311 15 18 397665 5
20180312 8 45 3780453 6
20180313 12 77 5342810 6
20180314 6 8 1046685 6
20180315 5 8 274080 5
20180316 8 11 362493 8
20180317 8 11 307373 7
20180318 16 102 7907588 7
20180319 14 50 3986625 12
20180320 57 240 17056026 14
20180321 6 9 237842 6
20180322 5 8 1129550 5
20180323 17 117 10844064 8
20180324 7 9 1073317 7
20180325 16 116 9008087 6
20180326 2 4 121905 2
20180327 16 105 8118235 5
20180328 6 8 1032172 5
20180329 3 24 1684944 2
END_DAY

# Session range - Number of visits
BEGIN_SESSION 6
2mn-5mn 1
0s-30s 155
30s-2mn 3
15mn-30mn 3
5mn-15mn 3
30mn-1h 2
END_SESSION

# URL - Pages - Bandwidth - Entry - Exit
# The 25 first Pages must be first (order not required for others)
BEGIN_SIDER 19
/ 198 5480587 164 150
/login 13 125315 0 1
/contact 12 120908 4 4
/fonts/fontawesome-webfont.woff2 12 790856 0 0
/courses 10 120110 0 3
/users/all 10 136980 0 0
/diplomas 9 111606 0 3
/register 7 68803 0 1
/fonts/fontawesome-webfont.woff 7 632884 1 3
/dashboard 6 73722 0 0
/admin/bower_components/font-awesome/fonts/fontawesome-webfont.woff2 4 308640 0 0
/certificates/all 3 60958 0 1
/students/all 3 85072 0 0
/certificates/create 3 58110 0 0
/students/create 2 27568 0 0
/admin/bower_components/bootstrap/dist/fonts/glyphicons-halflings-regular.woff2 1 18028 0 0
/diplomas/all 1 17879 0 0
/fonts/fontawesome-webfont.ttf 1 152796 0 1
/diplomas/create 1 15197 0 0
END_SIDER
