AWSTATS DATA FILE 7.4 (build 20140726)
# If you remove this file, all statistics for date 201801 will be lost/reset.
# Last config file used to build this data file was /home2/abdulkareem8/tmp/awstats/awstats.astonukonline.com.conf.

# Position (offset in bytes) in this file for beginning of each section for
# direct I/O access. If you made changes somewhere in this file, you should
# also remove completely the MAP section (AWStats will rewrite it at next
# update).
BEGIN_MAP 28
POS_GENERAL 2019                
POS_TIME 2698                
POS_VISITOR 12003               
POS_DAY 15756               
POS_DOMAIN 3524                
POS_LOGIN 4016                
POS_ROBOT 4171                
POS_WORMS 4616                
POS_EMAILSENDER 4747                
POS_EMAILRECEIVER 4890                
POS_SESSION 16550               
POS_SIDER 16758               
POS_FILETYPES 5025                
POS_DOWNLOADS 5271                
POS_OS 5319                
POS_BROWSER 5567                
POS_SCREENSIZE 6592                
POS_UNKNOWNREFERER 6666                
POS_UNKNOWNREFERERBROWSER 7123                
POS_ORIGIN 7442                
POS_SEREFERRALS 7584                
POS_PAGEREFS 7742                
POS_SEARCHWORDS 7920                
POS_KEYWORDS 8072                
POS_MISC 2361                
POS_ERRORS 8131                
POS_CLUSTER 3872                
POS_SIDER_404 8281                
END_MAP

# LastLine    = Date of last record processed - Last record line number in last log - Last record offset in last log - Last record signature value
# FirstTime   = Date of first visit for history file
# LastTime    = Date of last visit for history file
# LastUpdate  = Date of last update - Nb of parsed records - Nb of parsed old records - Nb of parsed new records - Nb of parsed corrupted - Nb of parsed dropped
# TotalVisits = Number of visits
# TotalUnique = Number of unique visitors
# MonthHostsKnown   = Number of hosts known
# MonthHostsUnKnown = Number of hosts unknown
BEGIN_GENERAL 8
LastLine 20180201003022 70 11880 8706560527763
FirstTime 20180101154441
LastTime 20180131154619
LastUpdate 20180201061829 70 0 69 0 0
TotalVisits 149                 
TotalUnique 88                  
MonthHostsKnown 0                   
MonthHostsUnknown 91                  
END_GENERAL

# Misc ID - Pages - Hits - Bandwidth
BEGIN_MISC 10
TotalMisc 0 0 0
PDFSupport 0 0 0
QuickTimeSupport 0 0 0
AddToFavourites 0 32 0
DirectorSupport 0 0 0
WindowsMediaPlayerSupport 0 0 0
JavaEnabled 0 0 0
JavascriptDisabled 0 0 0
RealPlayerSupport 0 0 0
FlashSupport 0 0 0
END_MISC

# Hour - Pages - Hits - Bandwidth - Not viewed Pages - Not viewed Hits - Not viewed Bandwidth
BEGIN_TIME 24
0 71 224 24715799 7 57 1630533
1 25 153 16431386 4 33 1508083
2 23 188 19503982 6 13 128638
3 7 72 6903884 2 29 1638741
4 6 70 150020 6 20 394680
5 16 18 593055 15 41 1731141
6 14 60 4481808 3 13 833188
7 18 19 2256223 2 11 126028
8 16 53 3813247 6 7 72050
9 25 73 11648732 12 55 1902817
10 2 34 3392079 16 21 210961
11 24 61 2278500 11 13 128096
12 24 152 12353843 5 14 109975
13 21 56 6106349 4 10 82403
14 8 100 9339804 4 10 84898
15 39 220 17834844 186 514 22649742
16 4 16 1648665 9 44 1929752
17 21 127 9394319 17 25 82950
18 10 10 138663 12 21 447432
19 6 6 86993 6 11 334001
20 24 118 8845264 8 34 825497
21 61 179 9229318 11 40 3315184
22 3 38 3863972 2 4 191142
23 19 85 7261489 1 6 81808
END_TIME

# Domain - Pages - Hits - Bandwidth
# The 25 first Pages must be first (order not required for others)
BEGIN_DOMAIN 18
ao 125 373 24678714
us 124 360 31063804
eg 115 627 50710202
ae 59 531 58068078
kr 21 45 1296918
za 12 76 6971687
ca 8 8 137201
in 4 25 1634287
fr 4 4 40100
gb 3 3 55798
nl 3 3 55690
kz 2 37 3836127
il 2 34 3472871
cn 2 2 55798
ru 1 1 27845
cv 1 1 27845
ua 1 1 27845
ro 0 1 111428
END_DOMAIN

# Cluster ID - Pages - Hits - Bandwidth
BEGIN_CLUSTER 0
END_CLUSTER

# Login - Pages - Hits - Bandwidth - Last visit
# The 10 first Pages must be first (order not required for others)
BEGIN_LOGIN 0
END_LOGIN

# Robot ID - Hits - Bandwidth - Last visit - Hits on robots.txt
# The 25 first Hits must be first (order not required for others)
BEGIN_ROBOT 8
spider 387 22504298 20180131154634 0
bot[\s_+:,\.\;\/\\-] 145 9016474 20180131213942 25
googlebot 118 6023446 20180130114736 11
no_user_agent 21 567109 20180131170129 0
bingpreview 16 1360440 20180118211241 0
unknown 5 120 20180124192114 5
googlebot\-image 1 27953 20180125143138 0
crawl 1 27845 20180110080135 0
END_ROBOT

# Worm ID - Hits - Bandwidth - Last visit
# The 5 first Hits must be first (order not required for others)
BEGIN_WORMS 0
END_WORMS

# EMail - Hits - Bandwidth - Last visit
# The 20 first Hits must be first (order not required for others)
BEGIN_EMAILSENDER 0
END_EMAILSENDER

# EMail - Hits - Bandwidth - Last visit
# The 20 first hits must be first (order not required for others)
BEGIN_EMAILRECEIVER 0
END_EMAILRECEIVER

# Files type - Hits - Bandwidth - Bandwidth without compression - Bandwidth after compression
BEGIN_FILETYPES 9
ttf 2 305592 0 0
css 460 17159094 0 0
Unknown 175 2325800 0 0
png 51 2866220 0 0
js 627 52245465 0 0
jpg 507 96481899 0 0
html 262 7420244 0 0
woff2 42 2925452 0 0
woff 6 542472 0 0
END_FILETYPES

# Downloads - Hits - Bandwidth
BEGIN_DOWNLOADS 0
END_DOWNLOADS

# OS ID - Hits
BEGIN_OS ID - Hits - Pages 14
bsdnetbsd 1 1
winnt 6 5
macosx8 1 1
winxp 7 7
macosx9 2 2
win8 23 2
Unknown 43 43
win7 729 226
macosx 57 24
linuxandroid 569 89
linux 40 8
win8.1 38 3
win2003 11 4
ios_iphone 605 72
END_OS

# Browser ID - Hits - Pages
BEGIN_BROWSER 49
safari10.0 301 27
iphone 153 21
firefox3.6.28 1 1
firefox32.0 1 1
chrome36.0.1985.143 100 5
firefox49.0 1 1
chrome61.0.3163.98 40 6
chrome58.0.3029.110 6 6
firefox21.0 23 2
firefox47.0 80 22
chrome56.0.2924.87 37 4
safari 106 12
chrome27.0.1453.116 1 1
wget 1 1
chrome34.0.1847.131 1 1
chrome56.2.7174.1802 1 1
chrome37.0.2062.120 1 1
Unknown 24 24
firefox34.0 1 1
chrome40.0.2214.93 1 1
safari11.0 40 7
chrome63.0.3239.84 14 2
chrome31.0.1650.57 1 1
chrome63.0.3239.111 212 33
chrome55.0.2883.75 250 111
firefox48.0 1 1
msie9.0 118 33
firefox33.0 4 4
safari9.0 39 7
safari11.0.1 37 4
chrome43.0.2357.124 34 2
chrome49.0.2623.75 2 2
chrome62.0.3202.75 38 3
chrome45.0.2454.94 1 1
msie6.0 1 1
chrome11.0.696.71 4 4
android 34 2
netscape 6 6
mozilla 15 15
chrome34.0.1847.76 108 11
chrome34.0.1847.114 45 21
chrome61.0.3163.100 13 13
msie11.0 4 4
chrome63.0.3239.132 83 33
firefox57.0 37 4
chrome60.0.3112.101 1 1
chrome49.0.2623.105 92 11
msie7.0 11 4
chrome27.0.1453.93 7 7
END_BROWSER

# Screen size - Hits
BEGIN_SCREENSIZE 0
END_SCREENSIZE

# Unknown referer OS - Last visit date
BEGIN_UNKNOWNREFERER 8
Mozilla/5.0_(compatible;_ips-agent) 20180117004346
WhatsApp/0.2.8000_N 20180117134358
Python/3.6_aiohttp/2.3.9 20180125234954
WhatsApp/2.18.9_A 20180118011755
AppEngine-Google;_(_http://code.google.com/appengine;_appid:_s~snapchat-proxy) 20180125120508
Mozilla 20180121070105
Mozilla/5.0_(compatible;_Dataprovider.com;) 20180103002552
WhatsApp/2.17.427_A 20180118004140
END_UNKNOWNREFERER

# Unknown referer Browser - Last visit date
BEGIN_UNKNOWNREFERERBROWSER 5
WhatsApp/0.2.8000_N 20180117134358
Python/3.6_aiohttp/2.3.9 20180125234954
WhatsApp/2.18.9_A 20180118011755
AppEngine-Google;_(_http://code.google.com/appengine;_appid:_s~snapchat-proxy) 20180125120508
WhatsApp/2.17.427_A 20180118004140
END_UNKNOWNREFERERBROWSER

# Origin - Pages - Hits 
BEGIN_ORIGIN 6
From0 203 234
From1 2 2
From2 34 120
From3 1 1
From4 247 1775
From5 0 0
END_ORIGIN

# Search engine referers ID - Pages - Hits
BEGIN_SEREFERRALS 1
google 34 120
END_SEREFERRALS

# External page referers - Pages - Hits
# The 25 first Pages must be first (order not required for others)
BEGIN_PAGEREFS 1
http://burger-imperia.com 1 1
END_PAGEREFS

# Search keyphrases - Number of search
# The 10 first number of search must be first (order not required for others)
BEGIN_SEARCHWORDS 0
END_SEARCHWORDS

# Search keywords - Number of search
# The 25 first number of search must be first (order not required for others)
BEGIN_KEYWORDS 0
END_KEYWORDS

# Errors - Hits - Bandwidth
BEGIN_ERRORS 6
302 25 9472
301 13 4054
404 228 844780
403 46 6030
406 7 1356
500 1 46363
END_ERRORS

# URL with 404 errors - Hits - Last URL referrer
BEGIN_SIDER_404 83
/KlfhsYYs 1 -
/js/js/jquery.slicknav.min.js 1 http://www.google.com/url
/media/media.php 1 -
/th1s_1s_a_4o4.html 31 http://www.google.com/url
/js/js/vendor/js/js/js/video.js 1 -
/js/js/bootstrap.min.js 1 -
/js/js/main.js 1 -
/js/source.src 5 -
/js/js/vendor/js/js/vendor/js/jquery.waypoints.min.js 1 -
/js/js/js/owl.carousel.min.js 1 -
/js/js/vendor/js/js/owl.carousel.min.js 1 http://www.google.com/url
/js/js/vendor/js/js/js/wow.min.js 1 http://www.google.com/url
/js/js/videojs-ie8.min.js 1 -
/js/js/vendor/js/plugins.js 1 http://www.google.com/url
/js/js/vendor/js/js/js/videojs-ie8.min.js 1 -
/js/js/vendor/js/counterup.main.js 1 -
/cache.php 1 -
/sitemap.xml 1 -
/js/js/vendor/js/js/js/jquery.waypoints.min.js 1 -
/js/options.src 6 -
/js/js/wow.min.js 1 -
/js/js/vendor/js/js/wow.min.js 1 -
/js/js/jquery.waypoints.min.js 1 -
/js/js/js/bootstrap.min.js 1 -
/js/js/js/vendor/jquery-1.12.4.min.js 1 http://www.google.com/url
/backups.php 1 -
/js/js/vendor/js/js/js/vendor/jquery-1.12.4.min.js 1 http://www.google.com/url
/js/js/vendor/js/vendor/js/videojs-ie8.min.js 1 -
/js/js/vendor/js/vendor/js/counterup.main.js 1 -
/mail.php 5 http://astonukonline.com/contact
/js/js/js/wow.min.js 1 http://www.google.com/url
/js/settings.src 6 -
/.ftpconfig 1 -
/public_html 1 -
/js/js/js/videojs-ie8.min.js 1 -
/js/js/video.js 1 -
/js/js/vendor/js/js/plugins.js 1 -
/js/js/vendor/js/js/js/main.js 1 -
/js/js/vendor/js/vendor/js/wow.min.js 1 -
/js/js/vendor/jquery-1.12.4.min.js 1 http://www.google.com/url
/js/js/vendor/js/vendor/js/js/js/plugins.js 1 -
/js/js/vendor/js/vendor/js/js/js/video.js 1 -
/js/js/vendor/js/vendor/js/js/js/bootstrap.min.js 1 http://www.google.com/url
/js/js/vendor/js/owl.carousel.min.js 1 -
/js/js/vendor/js/js/vendor/jquery-1.12.4.min.js 1 http://www.google.com/url
/wp-load.php 1 -
/js/js/vendor/js/js/vendor/js/counterup.main.js 1 -
/js/js/vendor/js/js/js/counterup.main.js 1 -
/js/js/vendor/js/vendor/js/js/videojs-ie8.min.js 1 http://www.google.com/url
/js/js/vendor/js/video.js 1 -
/js/js/js/plugins.js 1 -
/js/js/js/counterup.main.js 1 -
/js/js/vendor/js/vendor/js/js/js/counterup.main.js 1 -
/js/js/vendor/js/vendor/jquery-1.12.4.min.js 1 http://www.google.com/url
/js/js/vendor/js/js/jquery.slicknav.min.js 1 -
/js/js/js/jquery.waypoints.min.js 1 -
/js/js/vendor/js/vendor/js/vendor/jquery-1.12.4.min.js 1 http://www.google.com/url
/js/js/vendor/js/js/js/owl.carousel.min.js 1 -
/js/js/vendor/js/js/bootstrap.min.js 1 -
/a 7 -
/js/js/vendor/js/vendor/js/js/js/vendor/jquery-1.12.4.min.js 1 http://www.google.com/url
/js/js/vendor/js/js/js/bootstrap.min.js 1 -
/js/js/vendor/js/vendor/js/owl.carousel.min.js 1 http://www.google.com/url
/js/js/vendor/js/bootstrap.min.js 1 -
/apple-touch-icon.png 87 http://www.astonukonline.com/
/wp-register.php 1 -
/js/js/vendor/js/js/main.js 1 -
/js/js/vendor/js/jquery.slicknav.min.js 1 -
/js/js/counterup.main.js 1 -
/js/js/vendor/js/vendor/js/jquery.waypoints.min.js 1 -
/js/js/vendor/js/vendor/js/bootstrap.min.js 1 -
/js/js/vendor/js/js/vendor/js/plugins.js 1 http://www.google.com/url
/js/trackEl.src 5 -
/js/js/owl.carousel.min.js 1 -
/js/js/js/main.js 1 -
/js/js/vendor/js/videojs-ie8.min.js 1 -
/js/js/js/video.js 1 -
/js/js/vendor/js/js/vendor/js/js/main.js 1 http://www.google.com/url
/js/js/vendor/js/main.js 1 -
/js/js/vendor/js/js/videojs-ie8.min.js 1 -
/modules/mod_feed/tmpl/mod_feed.php 2 -
/wp-rdf.php 1 -
/js/js/plugins.js 1 -
END_SIDER_404

# Host - Pages - Hits - Bandwidth - Last visit date - [Start date of last visit] - [Last page of last visit]
# [Start date of last visit] and [Last page of last visit] are saved only if session is not finished
# The 25 first Hits must be first (order not required for others)
BEGIN_VISITOR 91
154.189.231.230 41 135 5779403 20180114214956
92.96.43.193 30 233 25192273 20180122093239
41.232.29.121 29 34 3079301 20180117143557
154.189.224.18 22 24 4355556 20180117093127
156.198.220.55 19 49 1939575 20180116111109
154.188.89.16 17 38 2983607 20180118212622
154.184.3.145 17 23 990510 20180116215052
156.199.198.178 16 16 457607 20180118004140
184.154.139.22 14 52 4844465 20180131154619
121.147.42.186 14 30 864612 20180115000414
5.31.190.40 14 154 17140253 20180118005244
104.192.74.20 12 12 163548 20180121070105
13.56.229.65 12 12 335436 20180131120553
156.211.189.168 11 108 3658957 20180113074017
66.249.81.186 11 33 6263671 20180118004949
154.185.181.69 8 70 5117807 20180109210938
184.154.36.164 8 30 903618 20180130153943
167.114.65.240 8 8 137201 20180103002553
211.115.79.122 7 15 432306 20180105014109
154.185.209.84 7 8 247144 20180120223946
66.249.81.184 7 33 3787783 20180118002209
34.241.43.144 6 6 80743 20180103183305
154.189.37.37 6 68 5057979 20180116174932
197.195.194.163 6 70 7428584 20180108154355
69.58.178.57 6 6 81774 20180117004346
192.0.116.178 2 34 3410487 20180115200306
2.50.119.144 2 34 3394947 20180117141355
41.232.5.227 2 14 1611221 20180102163159
197.198.53.193 3 38 3522926 20180116023513
67.205.189.103 2 2 0 20180128000349
107.178.195.145 2 2 61642 20180121021722
34.242.34.1 1 1 27845 20180125234954
41.232.50.224 3 16 1965913 20180130091939
159.203.81.93 2 2 40135 20180118001513
66.249.93.92 2 3 1995923 20180131070020
184.154.36.167 3 12 491693 20180121153926
176.31.64.186 4 4 40100 20180129185158
180.153.236.35 1 1 27845 20180107231926
213.227.139.199 1 1 27845 20180108235748
184.154.36.166 5 18 638679 20180117153413
156.198.229.131 5 35 1675607 20180130162451
38.100.21.66 4 11 310972 20180104111500
156.198.204.45 4 38 5433651 20180118011843
51.15.95.136 1 1 0 20180126231345
41.69.37.159 1 29 2465916 20180111144455
81.218.197.55 2 34 3472871 20180129125256
107.178.195.208 1 1 30821 20180125120508
27.56.143.117 2 23 1594532 20180120011635
51.15.209.146 1 1 27953 20180130203928
196.146.255.151 2 2 56060 20180114013837
162.243.69.215 1 1 71896 20180118001242
154.185.187.74 1 1 27845 20180110212537
66.249.81.75 0 2 50546 
196.146.252.235 5 37 3494859 20180114003551
196.158.7.155 5 37 3420768 20180130125340
8.37.233.22 2 34 3413463 20180117134607
41.43.44.193 6 40 3753806 20180117171753
217.165.64.93 6 38 3518231 20180118023440
185.22.152.37 1 1 27845 20180123022603
154.185.85.177 4 4 63173 20180119202223
46.101.137.125 2 2 27845 20180119235258
41.221.193.174 1 1 27845 20180103054557
156.199.68.243 2 34 3392079 20180113105810
103.211.189.50 1 1 11910 20180124192114
34.216.186.221 1 1 27845 20180104203210
18.144.38.210 1 1 27845 20180111025301
188.24.135.238 0 1 111428 
91.210.146.45 1 1 27845 20180128162346
41.232.10.36 2 34 3392079 20180116155211
88.204.246.74 2 37 3836127 20180115220720
5.31.142.232 5 38 5427427 20180118011943
66.249.81.73 0 2 167719 
95.128.43.164 1 1 27845 20180126194052
124.124.14.93 1 1 27845 20180130005117
107.178.195.149 2 2 61642 20180118122906
66.249.93.88 1 1 30821 20180122074756
156.211.149.178 1 3 135694 20180111063649
154.185.180.99 1 1 27845 20180102203109
66.249.81.188 5 28 3297572 20180118000807
41.43.47.60 3 35 3402180 20180105125452
69.16.145.247 1 1 0 20180116080934
154.184.107.2 1 1 27845 20180103210246
66.249.81.77 1 5 138125 20180111062707
184.154.36.168 1 4 135726 20180112153546
197.44.60.123 2 34 3395106 20180102095950
104.239.149.11 4 4 75924 20180109091332
54.188.53.93 1 1 27845 20180113184929
35.229.101.100 2 2 55690 20180117081252
61.154.29.190 1 1 27953 20180119003540
5.31.198.95 2 34 3394947 20180118032514
107.170.96.6 1 1 11910 20180124192115
END_VISITOR

# Date - Pages - Hits - Bandwidth - Visits
BEGIN_DAY 31
20180101 1 3 64211 1
20180102 7 54 5160526 5
20180103 17 19 337845 5
20180104 7 17 479511 4
20180105 13 55 3975850 5
20180106 1 4 62569 1
20180107 3 5 952142 3
20180108 8 75 7583460 3
20180109 14 78 5269352 5
20180110 2 5 143389 2
20180111 7 47 3102864 7
20180112 8 19 568032 2
20180113 16 149 7273642 6
20180114 49 178 9500986 4
20180115 13 91 7887535 5
20180116 49 217 15073733 7
20180117 87 293 28908238 17
20180118 92 494 57276221 20
20180119 9 12 291946 5
20180120 10 33 1910030 4
20180121 24 63 4329899 5
20180122 9 46 8423803 3
20180123 2 5 90425 2
20180124 3 6 142720 3
20180125 4 7 251284 4
20180126 3 6 970121 3
20180127 1 4 92789 1
20180128 4 7 1051769 3
20180129 4 39 3603265 3
20180130 17 95 7312183 8
20180131 3 6 181898 3
END_DAY

# Session range - Number of visits
BEGIN_SESSION 7
1h+ 3
2mn-5mn 8
5mn-15mn 6
15mn-30mn 2
30s-2mn 7
0s-30s 113
30mn-1h 10
END_SESSION

# URL - Pages - Bandwidth - Entry - Exit
# The 25 first Pages must be first (order not required for others)
BEGIN_SIDER 26
/ 262 7420244 134 100
/fonts/fontawesome-webfont.woff2 35 2444464 2 13
/login 33 318005 4 8
/diplomas 20 240113 1 4
/users/all 19 264797 0 4
/contact 19 191235 6 9
/courses 19 227495 2 4
/dashboard 12 147444 0 0
/students/all 10 267929 0 0
/certificates/all 10 191751 0 1
/register 8 78392 0 0
/admin/bower_components/font-awesome/fonts/fontawesome-webfont.woff2 6 462960 0 0
/fonts/fontawesome-webfont.woff 6 542472 0 4
/diplomas/all 6 99402 0 0
/diplomas/create 4 60788 0 0
/certificates/create 3 57206 0 0
/students/create 3 41352 0 0
/users/edit/3 2 29412 0 0
/fonts/fontawesome-webfont.ttf 2 305592 0 2
/users/edit/1 2 29446 0 0
/courses/all 1 16923 0 0
/users/edit/2 1 14724 0 0
/students/edit/24 1 13867 0 0
/admin/bower_components/bootstrap/dist/fonts/glyphicons-halflings-regular.woff2 1 18028 0 0
/diplomas/edit/7 1 15733 0 0
/certificates/edit/34 1 19786 0 0
END_SIDER
