AWSTATS DATA FILE 7.4 (build 20140726)
# If you remove this file, all statistics for date 201711 will be lost/reset.
# Last config file used to build this data file was /home2/abdulkareem8/tmp/awstats/awstats.astoneukonline.com.conf.

# Position (offset in bytes) in this file for beginning of each section for
# direct I/O access. If you made changes somewhere in this file, you should
# also remove completely the MAP section (AWStats will rewrite it at next
# update).
BEGIN_MAP 28
POS_GENERAL 2020                
POS_TIME 2704                
POS_VISITOR 11875               
POS_DAY 14238               
POS_DOMAIN 3401                
POS_LOGIN 3726                
POS_ROBOT 3881                
POS_WORMS 4231                
POS_EMAILSENDER 4362                
POS_EMAILRECEIVER 4505                
POS_SESSION 14498               
POS_SIDER 14688               
POS_FILETYPES 4640                
POS_DOWNLOADS 4880                
POS_OS 4928                
POS_BROWSER 5112                
POS_SCREENSIZE 5706                
POS_UNKNOWNREFERER 5780                
POS_UNKNOWNREFERERBROWSER 5958                
POS_ORIGIN 6080                
POS_SEREFERRALS 6215                
POS_PAGEREFS 6379                
POS_SEARCHWORDS 6583                
POS_KEYWORDS 6744                
POS_MISC 2367                
POS_ERRORS 6812                
POS_CLUSTER 3582                
POS_SIDER_404 6957                
END_MAP

# LastLine    = Date of last record processed - Last record line number in last log - Last record offset in last log - Last record signature value
# FirstTime   = Date of first visit for history file
# LastTime    = Date of last visit for history file
# LastUpdate  = Date of last update - Nb of parsed records - Nb of parsed old records - Nb of parsed new records - Nb of parsed corrupted - Nb of parsed dropped
# TotalVisits = Number of visits
# TotalUnique = Number of unique visitors
# MonthHostsKnown   = Number of hosts known
# MonthHostsUnKnown = Number of hosts unknown
BEGIN_GENERAL 8
LastLine 20171108055710 456 109882 18871721191028
FirstTime 20171101021917
LastTime 20171108055708
LastUpdate 20171108083901 456 0 456 0 0
TotalVisits 56                  
TotalUnique 48                  
MonthHostsKnown 0                   
MonthHostsUnknown 61                  
END_GENERAL

# Misc ID - Pages - Hits - Bandwidth
BEGIN_MISC 10
DirectorSupport 0 0 0
PDFSupport 0 0 0
JavaEnabled 0 0 0
AddToFavourites 0 55 0
WindowsMediaPlayerSupport 0 0 0
RealPlayerSupport 0 0 0
QuickTimeSupport 0 0 0
JavascriptDisabled 0 0 0
FlashSupport 0 0 0
TotalMisc 0 0 0
END_MISC

# Hour - Pages - Hits - Bandwidth - Not viewed Pages - Not viewed Hits - Not viewed Bandwidth
BEGIN_TIME 24
0 31 187 7558545 45 84 201329
1 3 91 4409464 2 7 16306
2 7 63 3475373 0 4 7354
3 2 2 61116 2 2 7354
4 2 2 61286 0 2 0
5 27 174 6830632 24 64 222254
6 3 3 91674 0 1 0
7 2 2 61116 0 0 0
8 7 94 4558698 9 21 135028
9 2 2 61362 0 0 0
10 1 1 30558 1 6 34880
11 11 100 4656516 0 14 37078
12 3 46 2255220 11 39 1761447
13 10 13 240318 0 5 11031
14 0 0 0 1 1 30634
15 12 101 4552893 4 15 145640
16 7 26 867719 3 14 43191
17 6 50 2302753 3 9 29750
18 1 1 30634 1 3 30582
19 2 2 61116 0 0 0
20 3 3 91674 0 1 0
21 0 0 0 0 0 0
22 4 53 2640643 24 114 2530670
23 6 50 2363586 0 3 8500
END_TIME

# Domain - Pages - Hits - Bandwidth
# The 25 first Pages must be first (order not required for others)
BEGIN_DOMAIN 8
eg 103 892 39388077
us 35 141 6844925
cn 4 4 95966
ru 4 4 61569
ca 2 2 61286
fr 2 2 61116
za 1 20 749957
de 1 1 0
END_DOMAIN

# Cluster ID - Pages - Hits - Bandwidth
BEGIN_CLUSTER 0
END_CLUSTER

# Login - Pages - Hits - Bandwidth - Last visit
# The 10 first Pages must be first (order not required for others)
BEGIN_LOGIN 0
END_LOGIN

# Robot ID - Hits - Bandwidth - Last visit - Hits on robots.txt
# The 25 first Hits must be first (order not required for others)
BEGIN_ROBOT 6
spider 34 2236799 20171107220405 0
bot[\s_+:,\.\;\/\\-] 25 1740557 20171105125457 1
crawl 10 122304 20171105124003 6
no_user_agent 5 153018 20171103150355 0
unknown 5 96 20171105105850 5
robot 2 30582 20171105105850 1
END_ROBOT

# Worm ID - Hits - Bandwidth - Last visit
# The 5 first Hits must be first (order not required for others)
BEGIN_WORMS 0
END_WORMS

# EMail - Hits - Bandwidth - Last visit
# The 20 first Hits must be first (order not required for others)
BEGIN_EMAILSENDER 0
END_EMAILSENDER

# EMail - Hits - Bandwidth - Last visit
# The 20 first hits must be first (order not required for others)
BEGIN_EMAILRECEIVER 0
END_EMAILRECEIVER

# Files type - Hits - Bandwidth - Bandwidth without compression - Bandwidth after compression
BEGIN_FILETYPES 9
html 87 2427528 0 0
js 275 23766475 0 0
png 246 3118837 0 0
Unknown 43 280785 0 0
jpg 200 9380946 0 0
woff 1 90412 0 0
css 193 6777679 0 0
php 1 30918 0 0
woff2 20 1389316 0 0
END_FILETYPES

# Downloads - Hits - Bandwidth
BEGIN_DOWNLOADS 0
END_DOWNLOADS

# OS ID - Hits
BEGIN_OS ID - Hits - Pages 9
winxp 1 1
linux 124 28
win8.1 462 54
linuxsuse 1 1
linuxandroid 243 28
macosx8 1 1
win7 230 35
winlong 2 2
Unknown 2 2
END_OS

# Browser ID - Hits - Pages
BEGIN_BROWSER 28
chrome41.0.2227.0 1 1
chrome21.0.1180.89 1 1
firefox3.6.18 1 1
chrome13.0.782.41 1 1
firefox31.0 13 1
chrome26.0.1410.65 1 1
firefox40.1 1 1
chrome55.0.2883.75 46 2
chrome58.0.3029.96 53 2
chrome49.0.2623.75 11 11
chrome11.0.696.71 2 2
chrome49.0.2623.105 141 15
msie8.0 46 2
chrome11.0.672.2 1 1
chrome61.0.3163.100 293 39
Unknown 1 1
chrome61.0.3163.98 100 11
chrome62.0.3202.75 279 35
android 2 2
firefox3.6.26 1 1
opera12.18 1 1
safari9.0 45 1
msie9.0 7 2
chrome31.0.1650.57 2 2
seamonkey 1 1
firefox30.0 2 1
firefox51.0 1 1
mozilla 12 12
END_BROWSER

# Screen size - Hits
BEGIN_SCREENSIZE 0
END_SCREENSIZE

# Unknown referer OS - Last visit date
BEGIN_UNKNOWNREFERER 2
Python/3.6_aiohttp/2.2.5 20171101204205
Mozilla/5.0_(compatible;_ips-agent) 20171105053743
END_UNKNOWNREFERER

# Unknown referer Browser - Last visit date
BEGIN_UNKNOWNREFERERBROWSER 1
Python/3.6_aiohttp/2.2.5 20171101204205
END_UNKNOWNREFERERBROWSER

# Origin - Pages - Hits 
BEGIN_ORIGIN 6
From0 73 86
From1 0 0
From2 3 8
From3 1 1
From4 75 971
From5 0 0
END_ORIGIN

# Search engine referers ID - Pages - Hits
BEGIN_SEREFERRALS 2
bing 1 1
google 2 7
END_SEREFERRALS

# External page referers - Pages - Hits
# The 25 first Pages must be first (order not required for others)
BEGIN_PAGEREFS 1
http://www.siteindexed.com/myurl=astoneukonline.com 1 1
END_PAGEREFS

# Search keyphrases - Number of search
# The 10 first number of search must be first (order not required for others)
BEGIN_SEARCHWORDS 1
amazon 1
END_SEARCHWORDS

# Search keywords - Number of search
# The 25 first number of search must be first (order not required for others)
BEGIN_KEYWORDS 1
amazon 1
END_KEYWORDS

# Errors - Hits - Bandwidth
BEGIN_ERRORS 6
301 1 313
403 7 938
406 7 1582
500 25 79875
302 1 344
404 232 886620
END_ERRORS

# URL with 404 errors - Hits - Last URL referrer
BEGIN_SIDER_404 100
/fav.icon 1 -
/js/js/js/owl.carousel.min.js 1 -
/js/options.src 2 -
/img/astone-logo.jpg 10 http://astoneukonline.com/
/js/js/vendor/js/vendor/js/vendor/js/videojs-ie8.min.js 1 http://www.google.com/url
/js/js/jquery.slicknav.min.js 1 http://www.google.com/url
/index.php/img/logo2.png 1 http://astoneukonline.com/index.php
/js/js/vendor/js/vendor/js/vendor/js/js/plugins.js 1 http://www.google.com/url
/admin/content/sitetree/ 1 -
/js/js/vendor/js/plugins.js 1 -
/js/js/vendor/js/js/wow.min.js 1 -
/js/js/js/counterup.main.js 1 -
/js/js/vendor/js/vendor/js/bootstrap.min.js 1 -
/login 3 -
/js/js/vendor/js/vendor/js/vendor/jquery-1.12.4.min.js 1 http://www.google.com/url
/js/js/js/video.js 1 -
/index.php/css/font-awesome.min.css 1 http://astoneukonline.com/index.php
/js/js/vendor/js/js/bootstrap.min.js 1 -
/js/js/vendor/js/vendor/js/jquery.waypoints.min.js 1 http://www.google.com/url
/index.php/css/slicknav.min.css 1 http://astoneukonline.com/index.php
/js/js/vendor/js/vendor/js/videojs-ie8.min.js 1 -
/js/js/vendor/js/js/js/plugins.js 1 http://www.google.com/url
/simpla/ 1 -
/js/js/js/wow.min.js 1 http://www.google.com/url
/js/js/vendor/js/vendor/js/vendor/js/main.js 1 -
/js/js/js/plugins.js 1 -
/js/js/vendor/js/js/js/jquery.slicknav.min.js 1 -
/manager/ 1 -
/index.php/css/style.css 1 http://astoneukonline.com/index.php
/js/js/owl.carousel.min.js 1 -
/js/js/vendor/js/vendor/js/js/jquery.waypoints.min.js 1 -
/js/js/vendor/js/js/js/counterup.main.js 1 -
/a 1 -
/js/js/vendor/js/vendor/js/vendor/js/plugins.js 1 -
/courses 3 http://astoneukonline.com/
/js/js/vendor/js/vendor/js/js/js/owl.carousel.min.js 1 http://www.google.com/url
/js/js/vendor/js/vendor/js/vendor/js/js/jquery.waypoints.min.js 1 -
/contact 3 http://astoneukonline.com/
/index.php/css/responsive.css 1 http://astoneukonline.com/index.php
/js/js/js/bootstrap.min.js 1 -
/js/js/jquery.waypoints.min.js 1 -
/js/trackEl.src 2 -
/css/bootstrap.min.css.map 2 -
/public_html 29 http://astoneukonline.com/register
/js/js/vendor/js/vendor/jquery-1.12.4.min.js 1 http://www.google.com/url
/js/js/js/jquery.slicknav.min.js 1 -
/js/js/videojs-ie8.min.js 1 -
/index.php/css/animate.css 1 http://astoneukonline.com/index.php
/index.php/css/owl.carousel.css 1 http://astoneukonline.com/index.php
/css/img/bg/1.jpg 35 http://astoneukonline.com/css/style.css
/js/js/vendor/js/js/js/vendor/jquery-1.12.4.min.js 1 http://www.google.com/url
/blog 4 http://astoneukonline.com/
/js/js/vendor/js/vendor/js/vendor/js/js/vendor/jquery-1.12.4.min.js 1 http://www.google.com/url
/js/js/vendor/js/js/js/owl.carousel.min.js 1 -
/js/js/js/vendor/jquery-1.12.4.min.js 1 http://www.google.com/url
/apple-touch-icon.png 7 http://astoneukonline.com/
/js/js/vendor/js/vendor/js/js/js/counterup.main.js 1 -
/route('download-certificate',%20['id'%20=%3E%20$certificates-%3Efirst()-%3Eid])%20%7D%7D 1 -
/js/js/vendor/js/video.js 1 -
/js/js/vendor/js/vendor/js/js/js/jquery.waypoints.min.js 1 -
/js/js/vendor/js/vendor/js/vendor/js/js/js/jquery.slicknav.min.js 1 http://www.google.com/url
/admin.php 1 -
/register 6 -
/js/js/counterup.main.js 1 -
/js/js/vendor/js/vendor/js/plugins.js 1 -
/js/js/vendor/jquery-1.12.4.min.js 1 http://www.google.com/url
/js/js/vendor/js/bootstrap.min.js 1 -
/js/js/plugins.js 1 -
/js/js/vendor/js/vendor/js/jquery.slicknav.min.js 1 -
/js/js/vendor/js/vendor/js/js/counterup.main.js 1 -
/js/js/vendor/js/jquery.slicknav.min.js 1 -
/index.php/css/video-js.css 1 http://astoneukonline.com/index.php
/js/js/vendor/js/videojs-ie8.min.js 1 http://www.google.com/url
/mail.php 2 -
/js/js/vendor/js/wow.min.js 1 -
/js/js/vendor/js/js/plugins.js 1 -
/index.php/img/logo.png 1 http://astoneukonline.com/index.php
/js/settings.src 2 -
/js/js/bootstrap.min.js 1 -
/js/js/js/main.js 1 -
/js/js/main.js 1 -
/js/js/vendor/js/vendor/js/vendor/js/owl.carousel.min.js 1 -
/js/js/vendor/js/js/video.js 1 http://www.google.com/url
/js/source.src 2 -
/css/img/bg/2.jpg 35 http://astoneukonline.com/css/style.css
/js/js/vendor/js/vendor/js/js/owl.carousel.min.js 1 -
/index.php/css/bootstrap.min.css 1 http://astoneukonline.com/index.php
/index.php/js/vendor/modernizr-2.8.3.min.js 1 http://astoneukonline.com/index.php
/js/js/video.js 1 -
/public/register 1 -
/js/js/js/videojs-ie8.min.js 1 -
/js/js/vendor/js/vendor/js/video.js 1 -
/js/mage/cookies.js 1 -
/js/js/vendor/js/vendor/js/counterup.main.js 1 -
/js/js/wow.min.js 1 -
/js/js/vendor/js/vendor/js/vendor/js/counterup.main.js 1 -
/th1s_1s_a_4o4.html 2 http://www.google.com/url
/js/js/vendor/js/main.js 1 -
/action_page.php 1 -
/js/js/vendor/js/vendor/js/js/video.js 1 http://www.google.com/url
END_SIDER_404

# Host - Pages - Hits - Bandwidth - Last visit date - [Start date of last visit] - [Last page of last visit]
# [Start date of last visit] and [Last page of last visit] are saved only if session is not finished
# The 25 first Hits must be first (order not required for others)
BEGIN_VISITOR 61
197.193.129.66 33 233 9799729 20171106001927
156.211.221.199 13 89 4129195 20171108055409 20171108055026 /diplomas/create
197.193.199.125 12 75 2548005 20171108055708 20171108052253 /
156.198.254.158 10 55 2311709 20171107151254
41.199.105.243 8 97 4564672 20171106113650
197.196.43.185 8 54 2342672 20171107130044
35.196.233.251 6 6 183348 20171103033748
156.211.23.44 5 93 4511080 20171108021047
41.44.131.112 5 5 87204 20171107164548
156.210.246.249 4 92 4482368 20171103172416
156.161.17.122 3 46 2256228 20171103085339
91.227.68.154 3 3 31011 20171103170812
195.154.48.195 2 2 61116 20171102132800
162.242.156.106 2 2 61192 20171103090834
156.210.125.211 2 53 2355215 20171101053537
66.102.9.130 2 2 61286 20171107045102
35.185.19.236 2 2 61116 20171102064633
70.42.131.170 2 46 2241184 20171102082302
45.35.109.241 1 1 30634 20171102020821
184.154.139.51 1 3 145304 20171107220354
52.16.189.211 1 45 2169288 20171102013701
218.241.108.158 1 1 30558 20171102131945
165.227.207.24 1 1 30558 20171103163658
218.241.108.76 1 1 30634 20171103180909
54.193.46.142 1 1 30558 20171104204907
45.35.167.117 0 1 863777 
158.69.2.15 1 1 30558 20171105105326
54.171.95.184 1 1 30558 20171101204205
45.35.63.243 0 1 5997 
54.172.77.130 0 1 3619 
35.196.226.251 1 1 30558 20171101192526
119.28.177.156 1 1 4140 20171101050546
45.35.109.246 0 1 15514 
66.249.88.60 1 1 30728 20171106082325
45.35.109.248 0 1 2803 
45.35.167.93 0 1 40401 
69.58.178.57 1 1 30634 20171105053743
54.157.56.111 1 1 30728 20171106091727
66.102.6.167 1 1 30558 20171103060208
66.249.83.157 1 1 30558 20171102203652
45.35.167.99 0 1 1226 
45.35.63.253 0 1 9028 
104.196.208.97 1 1 30558 20171101234000
45.35.109.240 0 1 8426 
184.154.139.50 1 4 255163 20171106220634
35.196.110.54 1 1 30558 20171101192530
45.35.167.69 0 1 97162 
66.249.93.69 1 1 30558 20171105083101
59.61.185.27 1 1 30634 20171105134007
45.35.63.211 0 1 8415 
185.209.22.120 1 1 30558 20171104070235
45.35.167.111 0 1 22755 
45.35.167.87 0 1 37045 
144.76.219.43 1 1 0 20171101021917
66.249.93.37 1 1 30558 20171103045322
158.69.229.134 1 1 30728 20171106234347
66.249.88.59 1 1 30728 20171107021459
66.102.6.228 1 1 30728 20171106110126
66.249.93.39 1 1 30558 20171102124106
196.128.1.157 1 20 749957 20171104160139
66.249.93.34 1 1 30558 20171101173304
END_VISITOR

# Date - Pages - Hits - Bandwidth - Visits
BEGIN_DAY 8
20171101 9 60 2512145 8
20171102 16 116 5920351 12
20171103 18 149 7014223 11
20171104 3 22 811073 3
20171105 6 50 2363568 5
20171106 44 292 12501292 7
20171107 28 166 7192140 7
20171108 28 211 8948104 3
END_DAY

# Session range - Number of visits
BEGIN_SESSION 5
15mn-30mn 1
30mn-1h 3
30s-2mn 1
0s-30s 47
5mn-15mn 2
END_SESSION

# URL - Pages - Bandwidth - Entry - Exit
# The 25 first Pages must be first (order not required for others)
BEGIN_SIDER 19
/ 86 2427075 55 44
/fonts/fontawesome-webfont.woff2 18 1294128 0 7
/blog 15 23913 0 0
/login 7 76769 0 0
/courses 6 21982 1 1
/register 5 55681 0 1
/public_html 2 438 0 0
/contact 2 20658 0 0
/courses/all 1 12525 0 0
/dashboard 1 12329 0 0
/fonts/fontawesome-webfont.woff 1 90412 0 0
/index.php 1 30918 0 0
/admin/bower_components/bootstrap/dist/fonts/glyphicons-halflings-regular.woff2 1 18028 0 0
/students/all 1 12531 0 0
/courses/create 1 15073 0 0
/diplomas/create 1 15079 0 0
/admin/ 1 453 0 1
/admin/bower_components/font-awesome/fonts/fontawesome-webfont.woff2 1 77160 0 0
/students/create 1 13807 0 0
END_SIDER
