AWSTATS DATA FILE 7.4 (build 20140726)
# If you remove this file, all statistics for date 201712 will be lost/reset.
# Last config file used to build this data file was /home2/abdulkareem8/tmp/awstats/awstats.astonukonline.com.conf.

# Position (offset in bytes) in this file for beginning of each section for
# direct I/O access. If you made changes somewhere in this file, you should
# also remove completely the MAP section (AWStats will rewrite it at next
# update).
BEGIN_MAP 28
POS_GENERAL 2019                
POS_TIME 2692                
POS_VISITOR 12093               
POS_DAY 15809               
POS_DOMAIN 3473                
POS_LOGIN 3910                
POS_ROBOT 4065                
POS_WORMS 4535                
POS_EMAILSENDER 4666                
POS_EMAILRECEIVER 4809                
POS_SESSION 16595               
POS_SIDER 16785               
POS_FILETYPES 4944                
POS_DOWNLOADS 5170                
POS_OS 5218                
POS_BROWSER 5485                
POS_SCREENSIZE 6549                
POS_UNKNOWNREFERER 6623                
POS_UNKNOWNREFERERBROWSER 6898                
POS_ORIGIN 7047                
POS_SEREFERRALS 7187                
POS_PAGEREFS 7354                
POS_SEARCHWORDS 7502                
POS_KEYWORDS 7654                
POS_MISC 2355                
POS_ERRORS 7713                
POS_CLUSTER 3766                
POS_SIDER_404 7864                
END_MAP

# LastLine    = Date of last record processed - Last record line number in last log - Last record offset in last log - Last record signature value
# FirstTime   = Date of first visit for history file
# LastTime    = Date of last visit for history file
# LastUpdate  = Date of last update - Nb of parsed records - Nb of parsed old records - Nb of parsed new records - Nb of parsed corrupted - Nb of parsed dropped
# TotalVisits = Number of visits
# TotalUnique = Number of unique visitors
# MonthHostsKnown   = Number of hosts known
# MonthHostsUnKnown = Number of hosts unknown
BEGIN_GENERAL 8
LastLine 20180101154441 1 0 13331633984595
FirstTime 20171201041314
LastTime 20171231221345
LastUpdate 20180102050238 1 0 0 0 0
TotalVisits 134                 
TotalUnique 83                  
MonthHostsKnown 0                   
MonthHostsUnknown 95                  
END_GENERAL

# Misc ID - Pages - Hits - Bandwidth
BEGIN_MISC 10
JavascriptDisabled 0 0 0
FlashSupport 0 0 0
JavaEnabled 0 0 0
RealPlayerSupport 0 0 0
AddToFavourites 0 29 0
QuickTimeSupport 0 0 0
TotalMisc 0 0 0
WindowsMediaPlayerSupport 0 0 0
PDFSupport 0 0 0
DirectorSupport 0 0 0
END_MISC

# Hour - Pages - Hits - Bandwidth - Not viewed Pages - Not viewed Hits - Not viewed Bandwidth
BEGIN_TIME 24
0 4 36 3447769 1 17 1951425
1 1 14 27845 4 11 253032
2 5 5 84547 22 22 50277
3 21 35 441287 15 39 1819377
4 17 51 4338936 4 9 336785
5 5 38 3792309 1 6 1075665
6 1 1 452 9 10 50768
7 4 36 3448465 4 4 41110
8 9 41 3587318 5 8 32439
9 14 17 386065 3 4 10493
10 2 2 90412 0 1 3666
11 2 2 55798 1 1 27845
12 8 13 282297 4 41 3447709
13 53 311 23587900 14 41 649616
14 4 5 169132 4 7 99405
15 30 92 8795154 239 773 34927680
16 5 13 2228835 36 110 5429678
17 4 36 3447661 4 27 1495957
18 6 44 4536088 27 102 5245582
19 6 38 3485531 4 42 1875004
20 16 52 3974765 3 10 118602
21 9 32 316844 1 23 972379
22 27 43 1014198 34 48 602924
23 4 39 3517531 10 31 490770
END_TIME

# Domain - Pages - Hits - Bandwidth
# The 25 first Pages must be first (order not required for others)
BEGIN_DOMAIN 15
eg 83 490 38883336
us 82 215 18077323
ao 26 162 11108019
cn 14 14 217176
ru 13 45 3470245
ca 8 8 137201
il 8 31 2458088
kr 7 15 432306
fr 7 7 105923
gb 3 3 27845
nl 2 2 55690
cz 1 1 452
it 1 1 27845
eu 1 1 27845
ro 1 1 27845
END_DOMAIN

# Cluster ID - Pages - Hits - Bandwidth
BEGIN_CLUSTER 0
END_CLUSTER

# Login - Pages - Hits - Bandwidth - Last visit
# The 10 first Pages must be first (order not required for others)
BEGIN_LOGIN 0
END_LOGIN

# Robot ID - Hits - Bandwidth - Last visit - Hits on robots.txt
# The 25 first Hits must be first (order not required for others)
BEGIN_ROBOT 8
spider 572 35095259 20171231223757 0
googlebot 138 6645129 20171231153350 14
bot[\s_+:,\.\;\/\\-] 124 9569500 20171231223249 20
bingpreview 66 4707527 20171230173436 0
google[_+\s]web[_+\s]preview 34 3391971 20171208124359 0
no_user_agent 10 278450 20171230182613 0
unknown 2 48 20171203225517 2
googlebot\-image 1 27845 20171208131016 0
END_ROBOT

# Worm ID - Hits - Bandwidth - Last visit
# The 5 first Hits must be first (order not required for others)
BEGIN_WORMS 0
END_WORMS

# EMail - Hits - Bandwidth - Last visit
# The 20 first Hits must be first (order not required for others)
BEGIN_EMAILSENDER 0
END_EMAILSENDER

# EMail - Hits - Bandwidth - Last visit
# The 20 first hits must be first (order not required for others)
BEGIN_EMAILRECEIVER 0
END_EMAILRECEIVER

# Files type - Hits - Bandwidth - Bandwidth without compression - Bandwidth after compression
BEGIN_FILETYPES 8
png 29 1583440 0 0
jpg 238 30393439 0 0
js 269 28497355 0 0
woff2 18 1245524 0 0
woff 2 180824 0 0
css 203 7980407 0 0
Unknown 75 949206 0 0
html 162 4226944 0 0
END_FILETYPES

# Downloads - Hits - Bandwidth
BEGIN_DOWNLOADS 0
END_DOWNLOADS

# OS ID - Hits
BEGIN_OS ID - Hits - Pages 16
win2000 1 1
macosx6 3 2
win2003 18 13
macosx8 4 1
macosx9 6 2
Unknown 17 15
winnt 77 11
macosx7 1 1
macosx 13 13
win7 521 131
win8 2 1
win8.1 4 2
winlong 12 11
linux 9 7
linuxandroid 298 36
java 10 10
END_OS

# Browser ID - Hits - Pages
BEGIN_BROWSER 53
firefox54.0 1 1
chrome61.0.3163.100 13 13
seamonkey 1 1
chrome31.0.1650.57 2 1
chrome32.0.1700.68 1 0
chrome62.0.3202.84 33 2
chrome45.0.2454.94 1 1
chrome56.0.2924.87 39 5
firefox34.0 10 10
safari7.0 1 0
chrome11.0.696.71 4 4
firefox47.0 47 23
msie8.0 7 7
msie9.0 128 31
firefox49.0 1 1
chrome58.0.3029.110 1 1
firefox26.0 5 2
chrome49.0.2623.75 3 3
firefox40.1 1 1
android 34 2
chrome49.0.2623.105 84 7
firefox52.49.96 1 1
firefox50.0 3 3
firefox24.0 1 0
chrome25.0.1364.172 1 1
msie11.0 4 4
firefox27.0 2 0
opera12.16 1 1
chrome34.0.1847.137 1 1
msie10.0 1 0
chrome63.0.3239.84 154 22
safari6.1 1 0
msie6.0 7 7
chrome55.0.2883.87 1 1
chrome35.0.1916.153 1 0
safari5.1.9 1 1
chrome32.0.1700.41 2 1
firefox55.0 1 1
chrome63.0.3239.83 37 4
msie11 2 0
Unknown 12 12
chrome37.0.2062.120 34 2
chrome62.0.3202.94 1 0
firefox52.0 1 1
chrome34.0.1847.116 1 1
mozilla 15 13
firefox57.0 38 4
chrome55.0.2883.75 165 35
chrome34.0.1847.114 15 7
chrome63.0.3239.111 55 8
chrome31.0.1650.63 8 3
msie7.0 11 6
firefox7.0.1 1 1
END_BROWSER

# Screen size - Hits
BEGIN_SCREENSIZE 0
END_SCREENSIZE

# Unknown referer OS - Last visit date
BEGIN_UNKNOWNREFERER 4
Mozilla/5.0_(compatible;_ips-agent) 20171203225530
Mozilla/6.0_(compatible) 20171202234025
Mozilla/5.0_(compatible;_Dataprovider.com;) 20171201041327
python-requests/2.18.4 20171224100908
END_UNKNOWNREFERER

# Unknown referer Browser - Last visit date
BEGIN_UNKNOWNREFERERBROWSER 2
Java/1.6.0_22 20171221090730
python-requests/2.18.4 20171224100908
END_UNKNOWNREFERERBROWSER

# Origin - Pages - Hits 
BEGIN_ORIGIN 6
From0 137 165
From1 0 0
From2 31 108
From3 0 0
From4 89 723
From5 0 0
END_ORIGIN

# Search engine referers ID - Pages - Hits
BEGIN_SEREFERRALS 2
bing 1 1
google 30 107
END_SEREFERRALS

# External page referers - Pages - Hits
# The 25 first Pages must be first (order not required for others)
BEGIN_PAGEREFS 0
END_PAGEREFS

# Search keyphrases - Number of search
# The 10 first number of search must be first (order not required for others)
BEGIN_SEARCHWORDS 0
END_SEARCHWORDS

# Search keywords - Number of search
# The 25 first number of search must be first (order not required for others)
BEGIN_KEYWORDS 0
END_KEYWORDS

# Errors - Hits - Bandwidth
BEGIN_ERRORS 6
406 14 3164
403 16 2144
404 339 1239902
405 1 33774
302 9 3588
301 32 9887
END_ERRORS

# URL with 404 errors - Hits - Last URL referrer
BEGIN_SIDER_404 87
/js/js/vendor/js/vendor/js/js/js/jquery.slicknav.min.js 2 -
/js/options.src 13 -
/js/js/vendor/js/js/plugins.js 1 -
/js/js/vendor/js/js/js/bootstrap.min.js 3 -
/js/js/js/main.js 4 -
/js/js/js/jquery.waypoints.min.js 4 -
/a 14 -
/apple-touch-icon.png 21 http://astonukonline.com/
/js/js/vendor/jquery-1.12.4.min.js 1 http://www.google.com/url
/js/js/js/plugins.js 4 -
/js/js/vendor/js/vendor/js/js/video.js 4 -
/js/js/vendor/js/video.js 1 -
/js/js/videojs-ie8.min.js 1 -
/js/js/vendor/js/jquery.slicknav.min.js 1 -
/js/js/vendor/js/owl.carousel.min.js 1 -
/js/js/vendor/js/counterup.main.js 1 http://www.google.com/url
/js/js/vendor/js/vendor/js/jquery.slicknav.min.js 4 -
/js/js/main.js 13 -
/libraries/sfn.php 1 -
/js/js/vendor/js/vendor/js/js/vendor/js/js/owl.carousel.min.js 1 http://www.google.com/url
/js/js/vendor/js/vendor/js/owl.carousel.min.js 1 -
/js/js/js/bootstrap.min.js 4 -
/js/js/vendor/js/vendor/js/vendor/js/js/bootstrap.min.js 2 http://www.google.com/url
/js/js/js/video.js 1 -
/js/js/plugins.js 10 -
/js/js/vendor/js/js/owl.carousel.min.js 1 -
/mail.php 2 http://astonukonline.com/contact
/js/js/vendor/js/vendor/js/main.js 1 -
/js/js/counterup.main.js 3 http://www.google.com/url
/blog/wp-login.php 1 http://45.79.81.203:65080/t.txt
/wp-login.php 10 http://45.79.81.203:65080/t.txt
/js/js/vendor/js/js/js/vendor/jquery-1.12.4.min.js 4 http://www.google.com/url
/js/js/vendor/js/vendor/jquery-1.12.4.min.js 1 http://www.google.com/url
/js/js/js/owl.carousel.min.js 5 http://www.google.com/url
/js/js/vendor/js/js/videojs-ie8.min.js 1 -
/js/js/vendor/js/vendor/js/js/jquery.slicknav.min.js 3 -
/js/source.src 18 -
/js/js/vendor/js/vendor/js/js/vendor/jquery-1.12.4.min.js 2 http://www.google.com/url
/js/js/vendor/js/vendor/js/js/wow.min.js 2 -
/js/js/vendor/js/vendor/js/counterup.main.js 4 http://www.google.com/url
/js/js/vendor/js/vendor/js/plugins.js 1 -
/js/js/vendor/js/vendor/js/js/vendor/js/wow.min.js 1 -
/js/trackEl.src 4 -
/js/js/jquery.slicknav.min.js 1 -
/js/js/js/vendor/jquery-1.12.4.min.js 1 http://www.google.com/url
/js/js/vendor/js/vendor/js/wow.min.js 1 -
/js/js/js/wow.min.js 1 -
/css/img/bg/2.jpg 1 -
/administrator/index.php 9 http://astonukonline.com/administrator
/js/js/bootstrap.min.js 4 -
/js/js/vendor/js/plugins.js 1 -
/sftp-config.json 1 -
/js/js/js/videojs-ie8.min.js 6 http://www.google.com/url
/css/img/bg/1.jpg 1 -
/js/js/vendor/js/js/jquery.slicknav.min.js 1 http://www.google.com/url
/js/js/vendor/js/vendor/js/js/js/owl.carousel.min.js 2 http://www.google.com/url
/administrator 9 -
/js/js/vendor/js/vendor/js/vendor/js/jquery.slicknav.min.js 1 -
/js/js/vendor/js/vendor/js/vendor/js/jquery.waypoints.min.js 4 -
/js/js/vendor/js/js/video.js 4 -
/js/js/js/counterup.main.js 1 -
/js/js/vendor/js/bootstrap.min.js 1 -
/js/js/js/jquery.slicknav.min.js 1 -
/js/js/vendor/js/vendor/js/js/bootstrap.min.js 2 http://www.google.com/url
/js/js/vendor/js/vendor/js/video.js 1 -
/js/js/jquery.waypoints.min.js 1 -
/js/js/video.js 13 -
/admin.php 11 -
/js/settings.src 7 -
/css/bootstrap.min.css.map 2 -
/sitemap.xml 1 -
/js/js/vendor/js/vendor/js/js/vendor/js/jquery.waypoints.min.js 1 http://www.google.com/url
/js/js/wow.min.js 1 -
/js/js/owl.carousel.min.js 13 -
/js/js/vendor/js/vendor/js/js/vendor/js/video.js 1 -
/css/owl.video.play.png 1 -
/css/img/bg/3.jpg 1 -
/th1s_1s_a_4o4.html 29 http://www.google.com/url
/wp/wp-login.php 1 http://andreogli.com/wp/wp-login.php
/js/js/vendor/js/vendor/js/vendor/js/video.js 4 http://www.google.com/url
/wp-admin 10 http://astonukonline.com/wp-login.php
/js/js/vendor/js/main.js 1 -
/wordpress/wp-login.php 1 http://animaux.aufeminin.com/
/js/js/vendor/js/vendor/js/js/js/vendor/jquery-1.12.4.min.js 4 http://www.google.com/url
/js/js/vendor/js/vendor/js/js/jquery.waypoints.min.js 2 -
/js/js/vendor/js/vendor/js/vendor/jquery-1.12.4.min.js 1 http://www.google.com/url
/js/js/vendor/js/js/js/video.js 2 http://www.google.com/url
END_SIDER_404

# Host - Pages - Hits - Bandwidth - Last visit date - [Start date of last visit] - [Last page of last visit]
# [Start date of last visit] and [Last page of last visit] are saved only if session is not finished
# The 25 first Hits must be first (order not required for others)
BEGIN_VISITOR 95
197.195.211.5 38 133 6267573 20171219132021
113.105.18.19 14 14 217176 20171206030354
41.199.98.69 13 48 3722454 20171219090926
13.56.229.65 10 10 279530 20171231021601
161.69.99.11 10 10 278450 20171221090730
192.99.47.111 8 8 137201 20171201041328
184.154.36.167 7 24 1995150 20171225160105
211.115.79.122 7 15 432306 20171231221345
184.154.139.22 7 26 2186375 20171228153318
38.100.21.65 6 11 226607 20171204120735
82.80.249.158 6 14 405013 20171202225610
184.154.36.168 6 22 2638403 20171231154247
69.58.178.58 6 6 81295 20171203225530
154.188.249.188 6 10 377906 20171208203656
184.154.36.166 5 18 2522629 20171227184357
156.211.103.26 5 19 459105 20171217044746
156.198.68.7 4 38 3526572 20171230134621
184.154.36.164 4 15 2564811 20171229154947
197.35.180.61 4 37 3760612 20171211044951
156.198.237.229 4 36 3429841 20171207182932
197.195.230.232 4 38 3605403 20171210142416
104.130.124.209 4 4 75924 20171210215416
176.31.64.186 4 4 40100 20171230221657
154.189.125.101 3 35 3419816 20171215204946
184.88.252.126 3 35 3401728 20171219201158
154.185.187.172 1 1 27845 20171205214017
156.198.232.57 1 1 27845 20171224121723
204.79.180.8 0 2 43458 
46.183.144.22 1 1 27845 20171223175304
156.212.218.235 0 1 101424 
204.79.180.11 0 1 863777 
93.91.112.172 1 1 452 20171218032135
163.172.197.129 1 1 27845 20171216085939
52.53.129.101 2 2 55906 20171204035128
82.240.30.231 1 1 27845 20171215041203
154.185.103.173 1 1 27845 20171201213759
154.185.160.97 1 1 27845 20171228212825
149.154.152.28 1 1 27845 20171206113120
82.80.249.164 0 1 159631 
217.23.87.178 1 1 452 20171205232340
185.147.35.45 2 34 3410487 20171214072332
154.189.218.111 1 1 90412 20171230104826
31.40.113.91 1 1 452 20171205225856
5.59.133.85 1 1 452 20171205225245
204.79.180.22 1 3 67395 20171219233233
54.179.187.232 1 1 27845 20171206024104
154.184.202.225 1 1 27845 20171225191242
197.44.60.123 2 34 3391971 20171203133937
74.91.23.194 1 1 27845 20171214153346
66.102.6.62 1 1 27845 20171213231257
34.208.191.80 1 1 27845 20171203173407
75.149.221.170 2 2 55798 20171223141039
154.185.134.204 1 1 27845 20171209204204
154.189.201.231 2 34 3391971 20171213000736
91.215.152.233 1 1 27845 20171226084139
204.79.180.4 0 1 2803 
82.202.249.91 1 1 27845 20171206022838
34.213.197.95 1 1 27845 20171201150750
154.188.144.162 2 34 3391971 20171229194329
66.102.6.63 1 1 27845 20171215000830
154.184.137.172 2 25 157493 20171206210215
213.176.233.23 1 1 452 20171205223544
66.249.93.213 1 1 27845 20171208124355
154.185.2.221 1 1 27845 20171211200756
5.196.89.155 1 1 10025 20171224032143
212.232.50.224 1 1 452 20171218022731
146.185.144.64 1 1 27845 20171227192455
204.79.180.18 0 1 9028 
151.80.146.172 1 1 27845 20171230164319
154.189.195.100 1 1 27845 20171212205730
178.79.166.148 1 1 0 20171224091114
188.25.241.243 1 1 27845 20171204081626
35.163.86.177 1 1 27845 20171214204214
91.220.145.213 1 1 452 20171218024620
109.252.206.69 1 1 452 20171218063939
204.79.180.23 0 8 242162 
37.78.63.179 1 1 452 20171218030525
105.82.215.89 1 1 27845 20171211190026
204.79.180.9 0 1 4614 
154.188.37.41 1 1 27845 20171216221049
41.232.38.117 2 35 3449831 20171231132628
188.165.223.75 1 1 27953 20171210043038
204.79.180.17 0 1 40401 
176.58.99.109 1 1 0 20171224100908
154.185.245.179 1 1 27845 20171226210755
82.80.249.211 1 1 27953 20171202225606
91.185.51.160 1 1 452 20171205221729
52.88.233.58 1 1 27845 20171224215700
197.196.201.203 2 33 3376457 20171204134412
204.79.180.16 0 1 121200 
82.80.249.143 0 1 47571 
154.185.255.226 1 14 27845 20171204012001
204.79.180.21 0 2 69274 
82.80.230.228 1 14 1817920 20171202204733
156.211.209.148 3 36 3736403 20171230052050
END_VISITOR

# Date - Pages - Hits - Bandwidth - Visits
BEGIN_DAY 31
20171201 11 14 1210845 4
20171202 10 36 2725656 5
20171203 11 45 3728170 5
20171204 13 64 3913874 7
20171205 8 10 257164 8
20171206 20 46 1521195 6
20171207 6 41 4520785 3
20171208 8 12 433596 3
20171209 3 5 237084 3
20171210 10 44 3737125 6
20171211 8 44 4144893 5
20171212 3 5 254904 3
20171213 5 40 4510760 4
20171214 5 40 4529168 4
20171215 9 43 3740543 8
20171216 3 5 254904 3
20171217 8 24 714117 5
20171218 6 8 201474 6
20171219 58 243 15112213 7
20171220 3 6 256346 3
20171221 2 5 146745 2
20171222 2 5 1021459 2
20171223 3 6 142604 3
20171224 7 10 1093694 7
20171225 2 4 74900 2
20171226 3 6 1009453 3
20171227 2 5 180329 2
20171228 3 6 221691 3
20171229 3 38 3631586 2
20171230 11 81 7445335 6
20171231 11 55 4084527 4
END_DAY

# Session range - Number of visits
BEGIN_SESSION 5
30mn-1h 1
15mn-30mn 2
30s-2mn 3
0s-30s 124
2mn-5mn 4
END_SESSION

# URL - Pages - Bandwidth - Entry - Exit
# The 25 first Pages must be first (order not required for others)
BEGIN_SIDER 19
/ 152 4222424 117 102
/fonts/fontawesome-webfont.woff2 16 1150336 0 7
/contact 16 160836 6 8
/courses 13 155670 0 1
/admin/ 10 4520 10 10
/login 9 86831 0 2
/diplomas 9 104923 0 1
/register 9 88233 0 1
/certificates/edit/32 7 136045 0 0
/certificates/all 4 75452 0 0
/certificates/create 3 56469 0 0
/fonts/fontawesome-webfont.woff 2 180824 1 2
/dashboard 1 12287 0 0
/courses/create 1 15191 0 0
/courses/all 1 16923 0 0
/admin/bower_components/bootstrap/dist/fonts/glyphicons-halflings-regular.woff2 1 18028 0 0
/students/all 1 26562 0 0
/admin/bower_components/font-awesome/fonts/fontawesome-webfont.woff2 1 77160 0 0
/students/create 1 13784 0 0
END_SIDER
